\relax 
\catcode `"\active 
\select@language{russian}
\@writefile{toc}{\select@language{russian}}
\@writefile{lof}{\select@language{russian}}
\@writefile{lot}{\select@language{russian}}
\@writefile{toc}{\contentsline {section}{\numberline {1}\IeC {\CYRV }\IeC {\cyrv }\IeC {\cyre }\IeC {\cyrd }\IeC {\cyre }\IeC {\cyrn }\IeC {\cyri }\IeC {\cyre }}{1}}
\@writefile{toc}{\contentsline {section}{\numberline {2}\IeC {\CYRS }\IeC {\cyre }\IeC {\cyrr }\IeC {\cyrv }\IeC {\cyre }\IeC {\cyrr }}{1}}
\@writefile{lof}{\contentsline {figure}{\numberline {1}{\ignorespaces \IeC {\CYRV }\IeC {\cyrery }\IeC {\cyrv }\IeC {\cyro }\IeC {\cyrd } \IeC {\cyrs }\IeC {\cyre }\IeC {\cyrr }\IeC {\cyrv }\IeC {\cyre }\IeC {\cyrr }\IeC {\cyra } \IeC {\cyrv }\IeC {\cyro } \IeC {\cyrv }\IeC {\cyrr }\IeC {\cyre }\IeC {\cyrm }\IeC {\cyrya } \IeC {\cyrr }\IeC {\cyra }\IeC {\cyrb }\IeC {\cyro }\IeC {\cyrt }\IeC {\cyrery }}}{1}}
\@writefile{toc}{\contentsline {section}{\numberline {3}\IeC {\CYRK }\IeC {\cyrl }\IeC {\cyri }\IeC {\cyre }\IeC {\cyrn }\IeC {\cyrt }}{1}}
\@writefile{lof}{\contentsline {figure}{\numberline {2}{\ignorespaces \IeC {\CYRD }\IeC {\cyri }\IeC {\cyra }\IeC {\cyrl }\IeC {\cyro }\IeC {\cyrg } \IeC {\cyrs }\IeC {\cyro }\IeC {\cyrz }\IeC {\cyrd }\IeC {\cyra }\IeC {\cyrn }\IeC {\cyri }\IeC {\cyrya }}}{2}}
\@writefile{lof}{\contentsline {figure}{\numberline {3}{\ignorespaces \IeC {\CYRD }\IeC {\cyri }\IeC {\cyra }\IeC {\cyrl }\IeC {\cyro }\IeC {\cyrg } \IeC {\cyrp }\IeC {\cyro }\IeC {\cyrd }\IeC {\cyrk }\IeC {\cyrl }\IeC {\cyryu }\IeC {\cyrch }\IeC {\cyre }\IeC {\cyrn }\IeC {\cyri }\IeC {\cyrya }}}{2}}
\@writefile{lof}{\contentsline {figure}{\numberline {4}{\ignorespaces \IeC {\CYRI }\IeC {\cyrn }\IeC {\cyrt }\IeC {\cyre }\IeC {\cyrr }\IeC {\cyrf }\IeC {\cyre }\IeC {\cyrishrt }\IeC {\cyrs } \IeC {\cyrv }\IeC {\cyro } \IeC {\cyrv }\IeC {\cyrr }\IeC {\cyre }\IeC {\cyrm }\IeC {\cyrya } \IeC {\cyri }\IeC {\cyrg }\IeC {\cyrr }\IeC {\cyrery }. \IeC {\CYRV }\IeC {\cyra }\IeC {\cyrsh } \IeC {\cyrh }\IeC {\cyro }\IeC {\cyrd }, \IeC {\cyri }\IeC {\cyrl }\IeC {\cyri } \IeC {\cyrn }\IeC {\cyre }\IeC {\cyrt }, \IeC {\cyro }\IeC {\cyrp }\IeC {\cyrr }\IeC {\cyre }\IeC {\cyrd }\IeC {\cyre }\IeC {\cyrl }\IeC {\cyrya }\IeC {\cyre }\IeC {\cyrt } \IeC {\cyrc }\IeC {\cyrv }\IeC {\cyre }\IeC {\cyrt } \IeC {\cyrk }\IeC {\cyru }\IeC {\cyrr }\IeC {\cyrs }\IeC {\cyro }\IeC {\cyrr }\IeC {\cyra } \IeC {\cyra } \IeC {\cyrt }\IeC {\cyra }\IeC {\cyrk } \IeC {\cyrzh }\IeC {\cyre } \IeC {\cyro }\IeC {\cyrt }\IeC {\cyrd }\IeC {\cyre }\IeC {\cyrl }\IeC {\cyrsftsn }\IeC {\cyrn }\IeC {\cyro }\IeC {\cyre } \IeC {\cyrs }\IeC {\cyro }\IeC {\cyro }\IeC {\cyrb }\IeC {\cyrshch }\IeC {\cyre }\IeC {\cyrn }\IeC {\cyri }\IeC {\cyre } \IeC {\cyrn }\IeC {\cyra } \IeC {\cyrerev }\IeC {\cyrk }\IeC {\cyrr }\IeC {\cyra }\IeC {\cyrn }\IeC {\cyre }}}{3}}
\@writefile{toc}{\contentsline {section}{\numberline {4}\IeC {\CYRI }\IeC {\cyrs }\IeC {\cyrh }\IeC {\cyro }\IeC {\cyrd }\IeC {\cyrn }\IeC {\cyrery }\IeC {\cyrishrt } \IeC {\cyrk }\IeC {\cyro }\IeC {\cyrd } \IeC {\cyrk }\IeC {\cyrl }\IeC {\cyri }\IeC {\cyre }\IeC {\cyrn }\IeC {\cyrt }\IeC {\cyra }}{3}}
\@writefile{lol}{\contentsline {lstlisting}{client.cpp}{3}}
\@writefile{toc}{\contentsline {section}{\numberline {5}\IeC {\CYRI }\IeC {\cyrs }\IeC {\cyrh }\IeC {\cyro }\IeC {\cyrd }\IeC {\cyrn }\IeC {\cyrery }\IeC {\cyrishrt } \IeC {\cyrk }\IeC {\cyro }\IeC {\cyrd } \IeC {\CYRS }\IeC {\cyre }\IeC {\cyrr }\IeC {\cyrv }\IeC {\cyre }\IeC {\cyrr }\IeC {\cyra }}{11}}
\@writefile{lol}{\contentsline {lstlisting}{server.cpp}{11}}
